id;code;jhi_start;jhi_end
1;Canadian Dollar;2019-05-28T01:58:59;2019-05-28T02:58:43
2;Designer Persistent;2019-05-27T22:35:40;2019-05-28T12:47:06
3;24/7 Re-contextualized cross-platform;2019-05-28T03:26:18;2019-05-27T23:33:01
4;withdrawal Solomon Islands Licensed;2019-05-27T18:40:42;2019-05-28T11:06:30
5;Bedfordshire;2019-05-27T22:01:34;2019-05-28T13:44:49
6;Kentucky Algerian Dinar Clothing;2019-05-28T02:26:07;2019-05-27T19:17:51
7;turn-key;2019-05-28T12:25:02;2019-05-28T10:32:26
8;Yen synthesize Creative;2019-05-28T11:25:30;2019-05-27T22:30:32
9;bandwidth azure;2019-05-28T01:43:51;2019-05-27T17:40:10
10;Enhanced deposit parsing;2019-05-28T01:24:03;2019-05-28T02:19:35
